…
    ## Rows: 483 Columns: 6
    ## ── Column specification ────────────────────────────────────────────────────────
    ## Delimiter: ","
    ## chr (1): Age at onset
    ## dbl (5): ID, Current Age, Sex, Education, apoe4
    ## 
    ## ℹ Use `spec()` to retrieve the full column specification for this data.
    ## ℹ Specify the column types or set `show_col_types = FALSE` to quiet this message.

``` r
filter(mci_baseline_data, sex=="Female", apoe4=="APOE4 carrier")
```

    ## # A tibble: 63 × 6
    ##    study_id age_at_baseline sex    education apoe4         age_at_onset
    ##       <dbl>           <dbl> <fct>      <dbl> <fct>                <dbl>
    ##  1        1            63.1 Female        16 APOE4 carrier         NA  
    ##  2        2            65.6 Female        20 APOE4 carrier         NA  
    ##  3       22            67.3 Female        20 APOE4 carrier         74.6
    ##  4       26            64.8 Female        20 APOE4 carrier         71.1
    ##  5       34            64.8 Female        16 APOE4 carrier         NA  
    ##  6       39            68.3 Female        16 APOE4 carrier         70.2
    ##  7       43            67.1 Female        16 APOE4 carrier         71.6
    ##  8       47            66.1 Female        12 APOE4 carrier         NA  
    ##  9       50            67.6 Female        18 APOE4 carrier         NA  
    ## 10       52            63.2 Female        16 APOE4 carrier         NA  
    ## # ℹ 53 more rows
…
